%YAML 1.1
%TAG !u! tag:unity3d.com,2011:
--- !u!1045 &1
EditorBuildSettings:
  m_ObjectHideFlags: 0
  serializedVersion: 2
  m_Scenes:
  - enabled: 1
    path: Assets/Scenes/StarScape_Main.unity
    guid: 9fc0d4010bbf28b4594072e72b8655ab
  m_configObjects:
    Unity.XR.Oculus.Settings: {fileID: 11400000, guid: e198db6ae3550ad48990936fad60e0a4, type: 2}
    com.unity.xr.management.loader_settings: {fileID: 11400000, guid: fb06efa97ee16d647b49d19ae77a1d47, type: 2}
